Location;Description
Gwynnie Bee;Item is at Gwynnie Bee warehouse and available for shipping
EC Warehouse - Customer;Item is at customer's home
EC Warehouse - Vendor Return;Item has been returned to vendor
EC Warehouse - Laundry Queue;Item is waiting for laundry
EC Warehouse - Laundry;Item is at laundary
EC Warehouse - Photoshoot Queue;Item is waiting for photoshoot
EC Warehouse - Photoshoot;Item is being photoshoot
EC Warehouse - Repair Queue;Item is waiting for repair
EC Warehouse - Repair;Item is being repaired
EC Warehouse - Retired;Item has been retired
